<svg width="38" height="40" viewBox="0 0 38 40" fill="none" xmlns="http://www.w3.org/2000/svg">
								<g clip-path="url(#clip0_313_504)">
									<path
										fill-rule="evenodd"
										clip-rule="evenodd"
										d="M12.7165 0.11745C15.7003 0.11745 18.1224 3.82825 18.1224 8.40247C18.1224 12.9767 15.7003 16.6875 12.7165 16.6875C9.73259 16.6875 7.31057 12.9799 7.31057 8.40247C7.31374 3.82825 9.73259 0.11745 12.7165 0.11745ZM18.5223 24.198H20.6079C20.9983 24.198 21.3158 24.5154 21.3158 24.9059V27.3342H23.7441C24.1346 27.3342 24.452 27.6517 24.452 28.0421V30.1276C24.452 30.5181 24.1346 30.8355 23.7441 30.8355H21.3158V33.2639C21.3158 33.6543 20.9983 33.9718 20.6079 33.9718H18.5223C18.1319 33.9718 17.8145 33.6512 17.8145 33.2639V30.8355H15.3861C14.9956 30.8355 14.6782 30.5181 14.6782 30.1276V28.0421C14.6782 27.6517 14.9956 27.3342 15.3861 27.3342H17.8145V24.9059C17.8145 24.5186 18.1319 24.198 18.5223 24.198ZM19.5889 20.1729C25.9185 20.1856 26.7058 24.3789 32.0418 31.5561C34.7019 36.7779 31.2483 40.0697 25.3281 38.6603C22.6426 37.2921 20.7539 36.8096 18.8588 36.8731C15.5765 36.9874 14.748 39.1523 10.9293 38.9999C7.98353 38.9206 6.65666 37.6857 6.39953 35.8034C6.12337 33.8035 6.89473 32.5401 7.83434 30.8863C11.4848 24.4487 15.2591 19.3666 19.5889 20.1729ZM2.27607 12.4053C0.0445094 13.2878 -0.666542 16.7764 0.685726 20.1951C2.03799 23.6139 4.94251 25.6709 7.17407 24.7884C9.40563 23.9059 10.1167 20.4173 8.76442 16.9986C7.41215 13.5798 4.50763 11.5228 2.27607 12.4053ZM35.7241 12.4053C37.9556 13.2878 38.6667 16.7764 37.3144 20.1951C35.9621 23.6139 33.0545 25.6709 30.8261 24.7884C28.5945 23.9059 27.8835 20.4173 29.2357 16.9986C30.588 13.5798 33.4925 11.5228 35.7241 12.4053ZM25.1884 0C28.1723 0 30.5943 3.7108 30.5943 8.28502C30.5943 12.8592 28.1723 16.57 25.1884 16.57C22.2046 16.57 19.7825 12.8624 19.7825 8.28502C19.7857 3.7108 22.2046 0 25.1884 0Z"
										fill="#E0004D"
									/>
								</g>
								<defs>
									<clipPath id="clip0_313_504">
										<rect width="38" height="39.0063" fill="white" />
									</clipPath>
								</defs>
							</svg>