<svg width="29" height="47" viewBox="0 0 29 47" fill="none" xmlns="http://www.w3.org/2000/svg">
								<g clip-path="url(#clip0_313_438)">
									<path
										fill-rule="evenodd"
										clip-rule="evenodd"
										d="M3.58796 15.7104C0.738036 16.3165 1.24251 20.5782 1.58887 24.1472C1.96159 27.9647 -1.58483 29.4442 0.869803 33.3257L1.88629 44.1231C1.91264 46.9052 5.65482 46.8864 6.06142 44.5937C6.74284 39.7371 5.764 37.3352 7.33014 34.4965C8.44451 32.4711 8.94899 30.1294 9.18617 27.6673C8.90758 27.6033 8.63652 27.4978 8.39181 27.351C7.32261 26.7072 5.11646 22.3025 4.3748 21.0187L4.34845 20.9735L4.31833 20.9095H4.31456C4.1188 20.4201 4.07362 19.9081 4.16397 19.4262C4.0435 19.3358 3.93056 19.2379 3.82891 19.1325C3.35455 18.6393 3.06843 17.9655 3.08349 17.2238C3.10231 16.6516 3.28678 16.1358 3.58796 15.7104ZM11.9683 0.918589C12.3975 0.470582 12.6949 0.0865752 13.3575 0.0112799C14.5961 -0.131781 15.7369 1.13695 15.1082 2.38685C14.9312 2.74074 14.566 3.16616 14.167 3.58028C13.7265 4.03582 13.2408 4.48382 12.8982 4.81889L11.9683 5.74126L11.2003 4.9996C10.2742 4.10735 8.76828 2.98921 8.71934 1.60001C8.68546 0.628702 9.45347 0.00375037 10.3344 0.0150447C11.1213 0.026339 11.4563 0.417875 11.9683 0.918589ZM5.73012 19.0271C4.75881 19.0083 3.98703 18.2064 4.00585 17.2313C4.02468 16.26 4.82657 15.4882 5.80165 15.5071L14.6112 15.748C14.6526 15.748 14.6903 15.7518 14.7317 15.7555C15.5562 15.4958 16.983 15.5522 19.4414 15.6388C21.448 15.7104 22.1257 17.2389 22.2725 19.2455L26.553 31.0104C26.0937 32.2151 24.5954 33.145 22.7167 33.6984L21.7341 44.0666C21.7078 46.8488 17.9656 46.8299 17.559 44.5372C17.2917 39.579 18.3948 35.9083 16.2903 34.0975L16.2489 34.0636C14.374 33.7135 12.7966 32.9041 12.1114 31.5487L12.6385 27.6221L19.4489 27.3661H19.4903V27.3623H19.5242C20.2621 27.3397 20.921 27.0197 21.3878 26.519C21.8358 26.0409 22.1106 25.3971 22.1144 24.6969L22.1181 24.6291H22.1144V24.599C22.0918 23.8611 21.7718 23.1985 21.2711 22.7317C20.7779 22.2686 20.1078 21.99 19.3736 22.0088L13.2898 22.2385L13.5382 20.1565C13.8695 20.1641 14.1971 20.1754 14.5246 20.1867C14.5848 20.1867 14.6451 20.1867 14.7053 20.1829V19.2643C14.6526 19.2681 14.5999 19.2681 14.5434 19.2681L5.73012 19.0271ZM5.17293 20.5594C5.07881 20.326 5.0374 20.085 5.04493 19.8478C5.25199 19.9043 5.47035 19.9382 5.69247 19.9457C6.77672 19.9909 7.86474 20.021 8.95276 20.0474L10.9481 23.2437L19.3774 22.9237C20.3487 22.8935 21.1619 23.6578 21.192 24.6291C21.2221 25.6004 20.4579 26.4136 19.4866 26.4437L9.96171 26.8014C9.19747 26.8842 8.44075 26.455 8.13957 25.7096L5.17293 20.5594ZM28.9964 11.7762C25.593 13.459 24.7045 8.12435 20.9925 8.6326C21.2447 9.38555 21.576 10.1046 21.9977 10.7823C22.8786 12.1941 24.0231 13.3837 25.77 13.5531C26.8956 13.6623 29.083 13.2896 28.9964 11.7762ZM16.1698 6.42644C14.118 6.42644 12.9058 7.49564 12.262 9.02037C11.6182 7.49564 10.4022 6.42644 8.35416 6.42644C6.30613 6.42644 4.11503 8.32389 4.11503 10.6656C4.11503 13.0073 6.30613 14.9047 8.35416 14.9047C10.4022 14.9047 11.622 13.8355 12.262 12.3108C12.9058 13.8355 14.1218 14.9047 16.1698 14.9047C18.2216 14.9047 20.4089 13.0073 20.4089 10.6656C20.4127 8.32389 18.2216 6.42644 16.1698 6.42644Z"
										fill="#E0004D"
									/>
								</g>
								<defs>
									<clipPath id="clip0_313_438">
										<rect width="29" height="46.2615" fill="white" />
									</clipPath>
								</defs>
							</svg>